<?xml version="1.0" encoding="UTF-8"?>
<testsuites>
  <testsuite name="CodeIgniter Application Test Suite" tests="17" assertions="31" failures="0" errors="0" time="0.680338">
    <testsuite name="Welcome_test" file="/Users/zardox/Sites/crossover/source/application/tests/controllers/Welcome_test.php" tests="3" assertions="3" failures="0" errors="0" time="0.094745">
      <testcase name="test_index" class="Welcome_test" file="/Users/zardox/Sites/crossover/source/application/tests/controllers/Welcome_test.php" line="13" assertions="1" time="0.048319"/>
      <testcase name="test_method_404" class="Welcome_test" file="/Users/zardox/Sites/crossover/source/application/tests/controllers/Welcome_test.php" line="19" assertions="1" time="0.033238"/>
      <testcase name="test_APPPATH" class="Welcome_test" file="/Users/zardox/Sites/crossover/source/application/tests/controllers/Welcome_test.php" line="25" assertions="1" time="0.013188"/>
    </testsuite>
    <testsuite name="Operator_mod_DBtest" file="/Users/zardox/Sites/crossover/source/application/tests/models/Operator_mod_DBtest.php" tests="1" assertions="1" failures="0" errors="0" time="0.014521">
      <testcase name="ok" class="Operator_mod_DBtest" file="/Users/zardox/Sites/crossover/source/application/tests/models/Operator_mod_DBtest.php" line="10" assertions="1" time="0.014521"/>
    </testsuite>
    <testsuite name="Operator_mod_test" file="/Users/zardox/Sites/crossover/source/application/tests/models/Operator_mod_test.php" tests="13" assertions="27" failures="0" errors="0" time="0.571072">
      <testcase name="login_operator" class="Operator_mod_test" file="/Users/zardox/Sites/crossover/source/application/tests/models/Operator_mod_test.php" line="20" assertions="1" time="0.045683"/>
      <testcase name="get_options" class="Operator_mod_test" file="/Users/zardox/Sites/crossover/source/application/tests/models/Operator_mod_test.php" line="30" assertions="4" time="0.049268"/>
      <testcase name="get_page_data_patient" class="Operator_mod_test" file="/Users/zardox/Sites/crossover/source/application/tests/models/Operator_mod_test.php" line="60" assertions="2" time="0.045987"/>
      <testcase name="patient_get" class="Operator_mod_test" file="/Users/zardox/Sites/crossover/source/application/tests/models/Operator_mod_test.php" line="71" assertions="3" time="0.037756"/>
      <testcase name="patient_save" class="Operator_mod_test" file="/Users/zardox/Sites/crossover/source/application/tests/models/Operator_mod_test.php" line="83" assertions="5" time="0.063957"/>
      <testcase name="patient_delete" class="Operator_mod_test" file="/Users/zardox/Sites/crossover/source/application/tests/models/Operator_mod_test.php" line="120" assertions="0" time="0.031944"/>
      <testcase name="get_select_test_result_table" class="Operator_mod_test" file="/Users/zardox/Sites/crossover/source/application/tests/models/Operator_mod_test.php" line="129" assertions="1" time="0.032707"/>
      <testcase name="get_from_test_result_table" class="Operator_mod_test" file="/Users/zardox/Sites/crossover/source/application/tests/models/Operator_mod_test.php" line="138" assertions="1" time="0.031718"/>
      <testcase name="get_page_data_test_result" class="Operator_mod_test" file="/Users/zardox/Sites/crossover/source/application/tests/models/Operator_mod_test.php" line="147" assertions="2" time="0.052570"/>
      <testcase name="labtest_result_get" class="Operator_mod_test" file="/Users/zardox/Sites/crossover/source/application/tests/models/Operator_mod_test.php" line="158" assertions="2" time="0.055016"/>
      <testcase name="labtest_result_save" class="Operator_mod_test" file="/Users/zardox/Sites/crossover/source/application/tests/models/Operator_mod_test.php" line="170" assertions="4" time="0.053114"/>
      <testcase name="labtest_result_delete" class="Operator_mod_test" file="/Users/zardox/Sites/crossover/source/application/tests/models/Operator_mod_test.php" line="199" assertions="0" time="0.031529"/>
      <testcase name="patient_test_result_report" class="Operator_mod_test" file="/Users/zardox/Sites/crossover/source/application/tests/models/Operator_mod_test.php" line="208" assertions="2" time="0.039823"/>
    </testsuite>
  </testsuite>
</testsuites>
